(module DIN-5 (layer F.Cu) (tedit 5CBF36D4)
  (descr "Din 5 (MIDI), Pro Signal P/N PSG03463")
  (tags "DIN 41524, 5 pin")
  (fp_text reference GN? (at 0 11) (layer F.SilkS)
    (effects (font (size 1.5 1.5) (thickness 0.3)))
  )
  (fp_text value DIN-5 (at 0 -11) (layer F.SilkS)
    (effects (font (size 1.5 1.5) (thickness 0.3)))
  )
  (fp_line (start 10.50036 8.49884) (end 10.50036 8.99922) (layer F.SilkS) (width 0.3048))
  (fp_line (start -10.50036 9.4996) (end -10.50036 8.99922) (layer F.SilkS) (width 0.3048))
  (fp_line (start -8.49884 8.001) (end -8.49884 8.49884) (layer F.SilkS) (width 0.3048))
  (fp_line (start 8.49884 8.49884) (end 8.49884 8.001) (layer F.SilkS) (width 0.3048))
  (fp_line (start -8.99922 8.001) (end -8.49884 8.001) (layer F.SilkS) (width 0.3048))
  (fp_line (start 8.99922 8.001) (end 8.49884 8.001) (layer F.SilkS) (width 0.3048))
  (fp_line (start -8.99922 8.49884) (end 10.50036 8.49884) (layer F.SilkS) (width 0.3048))
  (fp_line (start -8.99922 8.99922) (end -8.99922 8.49884) (layer F.SilkS) (width 0.3048))
  (fp_line (start -10.50036 8.99922) (end -8.99922 8.99922) (layer F.SilkS) (width 0.3048))
  (fp_line (start 8.99922 9.4996) (end -10.50036 9.4996) (layer F.SilkS) (width 0.3048))
  (fp_line (start 8.99922 8.99922) (end 8.99922 9.4996) (layer F.SilkS) (width 0.3048))
  (fp_line (start 10.50036 8.99922) (end 8.99922 8.99922) (layer F.SilkS) (width 0.3048))
  (fp_line (start 1.99898 -8.99922) (end 1.99898 -7.00024) (layer F.SilkS) (width 0.3048))
  (fp_line (start 1.50114 -9.4996) (end 1.99898 -8.99922) (layer F.SilkS) (width 0.3048))
  (fp_line (start -1.50114 -9.4996) (end 1.50114 -9.4996) (layer F.SilkS) (width 0.3048))
  (fp_line (start -1.99898 -8.99922) (end -1.99898 -7.00024) (layer F.SilkS) (width 0.3048))
  (fp_line (start -1.50114 -9.4996) (end -1.99898 -8.99922) (layer F.SilkS) (width 0.3048))
  (fp_line (start 5.4991 -7.00024) (end 1.99898 -7.00024) (layer F.SilkS) (width 0.3048))
  (fp_line (start 5.4991 -8.99922) (end 5.4991 -7.00024) (layer F.SilkS) (width 0.3048))
  (fp_line (start 5.99948 -9.4996) (end 5.4991 -8.99922) (layer F.SilkS) (width 0.3048))
  (fp_line (start 6.49986 -9.4996) (end 5.99948 -9.4996) (layer F.SilkS) (width 0.3048))
  (fp_line (start 8.49884 -9.4996) (end 6.49986 -9.4996) (layer F.SilkS) (width 0.3048))
  (fp_line (start 8.99922 -8.99922) (end 8.49884 -9.4996) (layer F.SilkS) (width 0.3048))
  (fp_line (start 8.99922 -8.99922) (end 8.99922 8.001) (layer F.SilkS) (width 0.3048))
  (fp_line (start -5.4991 -7.00024) (end -1.99898 -7.00024) (layer F.SilkS) (width 0.3048))
  (fp_line (start -5.4991 -8.99922) (end -5.4991 -7.00024) (layer F.SilkS) (width 0.3048))
  (fp_line (start -5.99948 -9.4996) (end -5.4991 -8.99922) (layer F.SilkS) (width 0.3048))
  (fp_line (start -8.49884 -9.4996) (end -5.99948 -9.4996) (layer F.SilkS) (width 0.3048))
  (fp_line (start -8.99922 -8.99922) (end -8.49884 -9.4996) (layer F.SilkS) (width 0.3048))
  (fp_line (start -8.99922 -8.99922) (end -8.99922 8.001) (layer F.SilkS) (width 0.3048))
  (fp_line (start -10.50036 9.25068) (end 8.99922 9.25068) (layer F.SilkS) (width 0.3048))
  (fp_line (start 8.99922 8.99922) (end -8.99922 8.99922) (layer F.SilkS) (width 0.3048))
  (fp_line (start -8.99922 8.7503) (end 10.50036 8.7503) (layer F.SilkS) (width 0.3048))
  (pad 6 thru_hole circle (at -5 7) (size 2.5 2.5) (drill 1.4) (layers *.Cu *.Mask))
  (pad 6 thru_hole circle (at 5 7) (size 2.5 2.5) (drill 1.4) (layers *.Cu *.Mask))
  (pad 5 thru_hole circle (at -5 -5.5) (size 2.5 2.5) (drill 1.4) (layers *.Cu *.Mask))
  (pad 1 thru_hole circle (at 7.5 -3) (size 2.5 2.5) (drill 1.4) (layers *.Cu *.Mask))
  (pad 2 thru_hole circle (at 0 -3) (size 2.5 2.5) (drill 1.4) (layers *.Cu *.Mask))
  (pad 4 thru_hole circle (at 5 -5.5) (size 2.5 2.5) (drill 1.4) (layers *.Cu *.Mask))
  (pad 3 thru_hole circle (at -7.5 -3) (size 2.5 2.5) (drill 1.4) (layers *.Cu *.Mask))
  (model walter/conn_av/din-5.wrl
    (at (xyz 0 0 0))
    (scale (xyz 1 1 1))
    (rotate (xyz 0 0 0))
  )
)
