G04 #@! TF.GenerationSoftware,KiCad,Pcbnew,(5.1.5)-3*
G04 #@! TF.CreationDate,2020-12-26T22:10:35+01:00*
G04 #@! TF.ProjectId,Regulator,52656775-6c61-4746-9f72-2e6b69636164,rev?*
G04 #@! TF.SameCoordinates,Original*
G04 #@! TF.FileFunction,Profile,NP*
%FSLAX46Y46*%
G04 Gerber Fmt 4.6, Leading zero omitted, Abs format (unit mm)*
G04 Created by KiCad (PCBNEW (5.1.5)-3) date 2020-12-26 22:10:35*
%MOMM*%
%LPD*%
G04 APERTURE LIST*
%ADD10C,0.050000*%
G04 APERTURE END LIST*
D10*
X34544000Y-116586000D02*
X179578000Y-116586000D01*
X34544000Y-38608000D02*
X179578000Y-38608000D01*
X34544000Y-51562000D02*
X34544000Y-38608000D01*
X24384000Y-51562000D02*
X34544000Y-51562000D01*
X24384000Y-103632000D02*
X24384000Y-51562000D01*
X34544000Y-103632000D02*
X24384000Y-103632000D01*
X34544000Y-116586000D02*
X34544000Y-103632000D01*
X179578000Y-103632000D02*
X179578000Y-116586000D01*
X189738000Y-103632000D02*
X179578000Y-103632000D01*
X189738000Y-51562000D02*
X189738000Y-103632000D01*
X179578000Y-51562000D02*
X189738000Y-51562000D01*
X179578000Y-38608000D02*
X179578000Y-51562000D01*
M02*
