G04 #@! TF.GenerationSoftware,KiCad,Pcbnew,(5.1.5)-3*
G04 #@! TF.CreationDate,2020-12-26T22:10:35+01:00*
G04 #@! TF.ProjectId,Regulator,52656775-6c61-4746-9f72-2e6b69636164,rev?*
G04 #@! TF.SameCoordinates,Original*
G04 #@! TF.FileFunction,Copper,L1,Top*
G04 #@! TF.FilePolarity,Positive*
%FSLAX46Y46*%
G04 Gerber Fmt 4.6, Leading zero omitted, Abs format (unit mm)*
G04 Created by KiCad (PCBNEW (5.1.5)-3) date 2020-12-26 22:10:35*
%MOMM*%
%LPD*%
G04 APERTURE LIST*
%ADD10O,1.700000X1.700000*%
%ADD11R,1.700000X1.700000*%
%ADD12C,1.600000*%
%ADD13O,1.500000X2.500000*%
%ADD14O,2.500000X1.500000*%
%ADD15R,2.500000X1.500000*%
%ADD16R,1.500000X2.500000*%
%ADD17O,1.600000X1.600000*%
%ADD18O,2.400000X2.400000*%
%ADD19C,2.400000*%
%ADD20O,1.800000X3.600000*%
%ADD21C,0.100000*%
%ADD22R,1.600000X1.600000*%
%ADD23O,2.500000X1.600000*%
%ADD24R,2.500000X1.600000*%
%ADD25O,3.600000X1.800000*%
%ADD26C,2.500000*%
%ADD27R,3.500000X3.500000*%
%ADD28R,1.800000X1.800000*%
%ADD29O,1.800000X1.800000*%
%ADD30C,1.620000*%
%ADD31O,1.200000X2.000000*%
%ADD32C,0.800000*%
%ADD33C,0.800000*%
G04 APERTURE END LIST*
D10*
X100584000Y-43688000D03*
D11*
X100584000Y-41148000D03*
D10*
X37592000Y-41148000D03*
D11*
X40132000Y-41148000D03*
D10*
X90424000Y-43688000D03*
D11*
X90424000Y-41148000D03*
D10*
X82550000Y-63754000D03*
D11*
X80010000Y-63754000D03*
D10*
X73406000Y-63754000D03*
D11*
X70866000Y-63754000D03*
D10*
X111252000Y-42672000D03*
X111252000Y-45212000D03*
X111252000Y-47752000D03*
X111252000Y-50292000D03*
X111252000Y-52832000D03*
X111252000Y-55372000D03*
X111252000Y-57912000D03*
X111252000Y-60452000D03*
X111252000Y-62992000D03*
X111252000Y-65532000D03*
X111252000Y-68072000D03*
X111252000Y-70612000D03*
X111252000Y-73152000D03*
X111252000Y-75692000D03*
D11*
X111252000Y-78232000D03*
D10*
X136652000Y-78232000D03*
X136652000Y-75692000D03*
X136652000Y-73152000D03*
X136652000Y-70612000D03*
X136652000Y-68072000D03*
X136652000Y-65532000D03*
X136652000Y-62992000D03*
X136652000Y-60452000D03*
X136652000Y-57912000D03*
X136652000Y-55372000D03*
X136652000Y-52832000D03*
X136652000Y-50292000D03*
X136652000Y-47752000D03*
X136652000Y-45212000D03*
D11*
X136652000Y-42672000D03*
D12*
X89916000Y-70104000D03*
X89916000Y-67604000D03*
D13*
X74295000Y-81915000D03*
X79375000Y-81915000D03*
X61595000Y-81915000D03*
X66675000Y-81915000D03*
X53975000Y-81915000D03*
X48895000Y-81915000D03*
D14*
X48387000Y-98425000D03*
X48387000Y-103505000D03*
D15*
X48387000Y-108585000D03*
D13*
X74930000Y-109855000D03*
X72390000Y-109855000D03*
X69850000Y-109855000D03*
X67310000Y-109855000D03*
X64770000Y-109855000D03*
X62230000Y-109855000D03*
X59690000Y-109855000D03*
D16*
X57150000Y-109855000D03*
D17*
X85852000Y-76708000D03*
D12*
X75692000Y-76708000D03*
D17*
X102616000Y-76708000D03*
D12*
X92456000Y-76708000D03*
D17*
X125476000Y-41656000D03*
D12*
X125476000Y-51816000D03*
D17*
X119888000Y-42672000D03*
D12*
X119888000Y-52832000D03*
D17*
X119888000Y-65532000D03*
D12*
X119888000Y-55372000D03*
D18*
X107188000Y-89916000D03*
D19*
X107188000Y-110236000D03*
D17*
X67056000Y-97028000D03*
D12*
X56896000Y-97028000D03*
D17*
X67056000Y-102108000D03*
D12*
X56896000Y-102108000D03*
D20*
X152146000Y-46736000D03*
G04 #@! TA.AperFunction,ComponentPad*
D21*
G36*
X157900504Y-44937204D02*
G01*
X157924773Y-44940804D01*
X157948571Y-44946765D01*
X157971671Y-44955030D01*
X157993849Y-44965520D01*
X158014893Y-44978133D01*
X158034598Y-44992747D01*
X158052777Y-45009223D01*
X158069253Y-45027402D01*
X158083867Y-45047107D01*
X158096480Y-45068151D01*
X158106970Y-45090329D01*
X158115235Y-45113429D01*
X158121196Y-45137227D01*
X158124796Y-45161496D01*
X158126000Y-45186000D01*
X158126000Y-48286000D01*
X158124796Y-48310504D01*
X158121196Y-48334773D01*
X158115235Y-48358571D01*
X158106970Y-48381671D01*
X158096480Y-48403849D01*
X158083867Y-48424893D01*
X158069253Y-48444598D01*
X158052777Y-48462777D01*
X158034598Y-48479253D01*
X158014893Y-48493867D01*
X157993849Y-48506480D01*
X157971671Y-48516970D01*
X157948571Y-48525235D01*
X157924773Y-48531196D01*
X157900504Y-48534796D01*
X157876000Y-48536000D01*
X156576000Y-48536000D01*
X156551496Y-48534796D01*
X156527227Y-48531196D01*
X156503429Y-48525235D01*
X156480329Y-48516970D01*
X156458151Y-48506480D01*
X156437107Y-48493867D01*
X156417402Y-48479253D01*
X156399223Y-48462777D01*
X156382747Y-48444598D01*
X156368133Y-48424893D01*
X156355520Y-48403849D01*
X156345030Y-48381671D01*
X156336765Y-48358571D01*
X156330804Y-48334773D01*
X156327204Y-48310504D01*
X156326000Y-48286000D01*
X156326000Y-45186000D01*
X156327204Y-45161496D01*
X156330804Y-45137227D01*
X156336765Y-45113429D01*
X156345030Y-45090329D01*
X156355520Y-45068151D01*
X156368133Y-45047107D01*
X156382747Y-45027402D01*
X156399223Y-45009223D01*
X156417402Y-44992747D01*
X156437107Y-44978133D01*
X156458151Y-44965520D01*
X156480329Y-44955030D01*
X156503429Y-44946765D01*
X156527227Y-44940804D01*
X156551496Y-44937204D01*
X156576000Y-44936000D01*
X157876000Y-44936000D01*
X157900504Y-44937204D01*
G37*
G04 #@! TD.AperFunction*
D11*
X167640000Y-52324000D03*
D10*
X167640000Y-49784000D03*
X167640000Y-47244000D03*
X167640000Y-44704000D03*
X167640000Y-42164000D03*
D16*
X163830000Y-58039000D03*
D13*
X166370000Y-58039000D03*
X168910000Y-58039000D03*
X171450000Y-58039000D03*
D10*
X166624000Y-109220000D03*
D11*
X166624000Y-111760000D03*
D22*
X131572000Y-78232000D03*
D17*
X116332000Y-45212000D03*
X131572000Y-75692000D03*
X116332000Y-47752000D03*
X131572000Y-73152000D03*
X116332000Y-50292000D03*
X131572000Y-70612000D03*
X116332000Y-52832000D03*
X131572000Y-68072000D03*
X116332000Y-55372000D03*
X131572000Y-65532000D03*
X116332000Y-57912000D03*
X131572000Y-62992000D03*
X116332000Y-60452000D03*
X131572000Y-60452000D03*
X116332000Y-62992000D03*
X131572000Y-57912000D03*
X116332000Y-65532000D03*
X131572000Y-55372000D03*
X116332000Y-68072000D03*
X131572000Y-52832000D03*
X116332000Y-70612000D03*
X131572000Y-50292000D03*
X116332000Y-73152000D03*
X131572000Y-47752000D03*
X116332000Y-75692000D03*
X131572000Y-45212000D03*
X116332000Y-78232000D03*
X131572000Y-42672000D03*
X116332000Y-42672000D03*
D22*
X105156000Y-41148000D03*
D12*
X105156000Y-43648000D03*
D23*
X115824000Y-99314000D03*
X115824000Y-101854000D03*
X115824000Y-104394000D03*
X115824000Y-106934000D03*
X115824000Y-109474000D03*
D24*
X115824000Y-112014000D03*
D13*
X140970000Y-99949000D03*
X138430000Y-99949000D03*
X135890000Y-99949000D03*
D16*
X133350000Y-99949000D03*
D11*
X105664000Y-84328000D03*
D10*
X105664000Y-81788000D03*
D25*
X28956000Y-84836000D03*
G04 #@! TA.AperFunction,ComponentPad*
D21*
G36*
X30530504Y-78857204D02*
G01*
X30554773Y-78860804D01*
X30578571Y-78866765D01*
X30601671Y-78875030D01*
X30623849Y-78885520D01*
X30644893Y-78898133D01*
X30664598Y-78912747D01*
X30682777Y-78929223D01*
X30699253Y-78947402D01*
X30713867Y-78967107D01*
X30726480Y-78988151D01*
X30736970Y-79010329D01*
X30745235Y-79033429D01*
X30751196Y-79057227D01*
X30754796Y-79081496D01*
X30756000Y-79106000D01*
X30756000Y-80406000D01*
X30754796Y-80430504D01*
X30751196Y-80454773D01*
X30745235Y-80478571D01*
X30736970Y-80501671D01*
X30726480Y-80523849D01*
X30713867Y-80544893D01*
X30699253Y-80564598D01*
X30682777Y-80582777D01*
X30664598Y-80599253D01*
X30644893Y-80613867D01*
X30623849Y-80626480D01*
X30601671Y-80636970D01*
X30578571Y-80645235D01*
X30554773Y-80651196D01*
X30530504Y-80654796D01*
X30506000Y-80656000D01*
X27406000Y-80656000D01*
X27381496Y-80654796D01*
X27357227Y-80651196D01*
X27333429Y-80645235D01*
X27310329Y-80636970D01*
X27288151Y-80626480D01*
X27267107Y-80613867D01*
X27247402Y-80599253D01*
X27229223Y-80582777D01*
X27212747Y-80564598D01*
X27198133Y-80544893D01*
X27185520Y-80523849D01*
X27175030Y-80501671D01*
X27166765Y-80478571D01*
X27160804Y-80454773D01*
X27157204Y-80430504D01*
X27156000Y-80406000D01*
X27156000Y-79106000D01*
X27157204Y-79081496D01*
X27160804Y-79057227D01*
X27166765Y-79033429D01*
X27175030Y-79010329D01*
X27185520Y-78988151D01*
X27198133Y-78967107D01*
X27212747Y-78947402D01*
X27229223Y-78929223D01*
X27247402Y-78912747D01*
X27267107Y-78898133D01*
X27288151Y-78885520D01*
X27310329Y-78875030D01*
X27333429Y-78866765D01*
X27357227Y-78860804D01*
X27381496Y-78857204D01*
X27406000Y-78856000D01*
X30506000Y-78856000D01*
X30530504Y-78857204D01*
G37*
G04 #@! TD.AperFunction*
D11*
X146304000Y-41402000D03*
D10*
X143764000Y-41402000D03*
X141224000Y-41402000D03*
X118872000Y-85852000D03*
D11*
X116332000Y-85852000D03*
D10*
X132080000Y-85852000D03*
D11*
X129540000Y-85852000D03*
D26*
X63634000Y-51260000D03*
X51134000Y-53760000D03*
X56134000Y-51260000D03*
X48634000Y-51260000D03*
X61134000Y-53760000D03*
X51134000Y-41260000D03*
X61134000Y-41260000D03*
G04 #@! TA.AperFunction,ComponentPad*
D21*
G36*
X30530504Y-66665204D02*
G01*
X30554773Y-66668804D01*
X30578571Y-66674765D01*
X30601671Y-66683030D01*
X30623849Y-66693520D01*
X30644893Y-66706133D01*
X30664598Y-66720747D01*
X30682777Y-66737223D01*
X30699253Y-66755402D01*
X30713867Y-66775107D01*
X30726480Y-66796151D01*
X30736970Y-66818329D01*
X30745235Y-66841429D01*
X30751196Y-66865227D01*
X30754796Y-66889496D01*
X30756000Y-66914000D01*
X30756000Y-68214000D01*
X30754796Y-68238504D01*
X30751196Y-68262773D01*
X30745235Y-68286571D01*
X30736970Y-68309671D01*
X30726480Y-68331849D01*
X30713867Y-68352893D01*
X30699253Y-68372598D01*
X30682777Y-68390777D01*
X30664598Y-68407253D01*
X30644893Y-68421867D01*
X30623849Y-68434480D01*
X30601671Y-68444970D01*
X30578571Y-68453235D01*
X30554773Y-68459196D01*
X30530504Y-68462796D01*
X30506000Y-68464000D01*
X27406000Y-68464000D01*
X27381496Y-68462796D01*
X27357227Y-68459196D01*
X27333429Y-68453235D01*
X27310329Y-68444970D01*
X27288151Y-68434480D01*
X27267107Y-68421867D01*
X27247402Y-68407253D01*
X27229223Y-68390777D01*
X27212747Y-68372598D01*
X27198133Y-68352893D01*
X27185520Y-68331849D01*
X27175030Y-68309671D01*
X27166765Y-68286571D01*
X27160804Y-68262773D01*
X27157204Y-68238504D01*
X27156000Y-68214000D01*
X27156000Y-66914000D01*
X27157204Y-66889496D01*
X27160804Y-66865227D01*
X27166765Y-66841429D01*
X27175030Y-66818329D01*
X27185520Y-66796151D01*
X27198133Y-66775107D01*
X27212747Y-66755402D01*
X27229223Y-66737223D01*
X27247402Y-66720747D01*
X27267107Y-66706133D01*
X27288151Y-66693520D01*
X27310329Y-66683030D01*
X27333429Y-66674765D01*
X27357227Y-66668804D01*
X27381496Y-66665204D01*
X27406000Y-66664000D01*
X30506000Y-66664000D01*
X30530504Y-66665204D01*
G37*
G04 #@! TD.AperFunction*
D25*
X28956000Y-72644000D03*
D26*
X82724000Y-41260000D03*
X72724000Y-41260000D03*
X82724000Y-53760000D03*
X70224000Y-51260000D03*
X77724000Y-51260000D03*
X72724000Y-53760000D03*
X85224000Y-51260000D03*
D27*
X34544000Y-93980000D03*
G04 #@! TA.AperFunction,ComponentPad*
D21*
G36*
X29367513Y-92233611D02*
G01*
X29440318Y-92244411D01*
X29511714Y-92262295D01*
X29581013Y-92287090D01*
X29647548Y-92318559D01*
X29710678Y-92356398D01*
X29769795Y-92400242D01*
X29824330Y-92449670D01*
X29873758Y-92504205D01*
X29917602Y-92563322D01*
X29955441Y-92626452D01*
X29986910Y-92692987D01*
X30011705Y-92762286D01*
X30029589Y-92833682D01*
X30040389Y-92906487D01*
X30044000Y-92980000D01*
X30044000Y-94980000D01*
X30040389Y-95053513D01*
X30029589Y-95126318D01*
X30011705Y-95197714D01*
X29986910Y-95267013D01*
X29955441Y-95333548D01*
X29917602Y-95396678D01*
X29873758Y-95455795D01*
X29824330Y-95510330D01*
X29769795Y-95559758D01*
X29710678Y-95603602D01*
X29647548Y-95641441D01*
X29581013Y-95672910D01*
X29511714Y-95697705D01*
X29440318Y-95715589D01*
X29367513Y-95726389D01*
X29294000Y-95730000D01*
X27794000Y-95730000D01*
X27720487Y-95726389D01*
X27647682Y-95715589D01*
X27576286Y-95697705D01*
X27506987Y-95672910D01*
X27440452Y-95641441D01*
X27377322Y-95603602D01*
X27318205Y-95559758D01*
X27263670Y-95510330D01*
X27214242Y-95455795D01*
X27170398Y-95396678D01*
X27132559Y-95333548D01*
X27101090Y-95267013D01*
X27076295Y-95197714D01*
X27058411Y-95126318D01*
X27047611Y-95053513D01*
X27044000Y-94980000D01*
X27044000Y-92980000D01*
X27047611Y-92906487D01*
X27058411Y-92833682D01*
X27076295Y-92762286D01*
X27101090Y-92692987D01*
X27132559Y-92626452D01*
X27170398Y-92563322D01*
X27214242Y-92504205D01*
X27263670Y-92449670D01*
X27318205Y-92400242D01*
X27377322Y-92356398D01*
X27440452Y-92318559D01*
X27506987Y-92287090D01*
X27576286Y-92262295D01*
X27647682Y-92244411D01*
X27720487Y-92233611D01*
X27794000Y-92230000D01*
X29294000Y-92230000D01*
X29367513Y-92233611D01*
G37*
G04 #@! TD.AperFunction*
G04 #@! TA.AperFunction,ComponentPad*
G36*
X32504765Y-96934213D02*
G01*
X32589704Y-96946813D01*
X32672999Y-96967677D01*
X32753848Y-96996605D01*
X32831472Y-97033319D01*
X32905124Y-97077464D01*
X32974094Y-97128616D01*
X33037718Y-97186282D01*
X33095384Y-97249906D01*
X33146536Y-97318876D01*
X33190681Y-97392528D01*
X33227395Y-97470152D01*
X33256323Y-97551001D01*
X33277187Y-97634296D01*
X33289787Y-97719235D01*
X33294000Y-97805000D01*
X33294000Y-99555000D01*
X33289787Y-99640765D01*
X33277187Y-99725704D01*
X33256323Y-99808999D01*
X33227395Y-99889848D01*
X33190681Y-99967472D01*
X33146536Y-100041124D01*
X33095384Y-100110094D01*
X33037718Y-100173718D01*
X32974094Y-100231384D01*
X32905124Y-100282536D01*
X32831472Y-100326681D01*
X32753848Y-100363395D01*
X32672999Y-100392323D01*
X32589704Y-100413187D01*
X32504765Y-100425787D01*
X32419000Y-100430000D01*
X30669000Y-100430000D01*
X30583235Y-100425787D01*
X30498296Y-100413187D01*
X30415001Y-100392323D01*
X30334152Y-100363395D01*
X30256528Y-100326681D01*
X30182876Y-100282536D01*
X30113906Y-100231384D01*
X30050282Y-100173718D01*
X29992616Y-100110094D01*
X29941464Y-100041124D01*
X29897319Y-99967472D01*
X29860605Y-99889848D01*
X29831677Y-99808999D01*
X29810813Y-99725704D01*
X29798213Y-99640765D01*
X29794000Y-99555000D01*
X29794000Y-97805000D01*
X29798213Y-97719235D01*
X29810813Y-97634296D01*
X29831677Y-97551001D01*
X29860605Y-97470152D01*
X29897319Y-97392528D01*
X29941464Y-97318876D01*
X29992616Y-97249906D01*
X30050282Y-97186282D01*
X30113906Y-97128616D01*
X30182876Y-97077464D01*
X30256528Y-97033319D01*
X30334152Y-96996605D01*
X30415001Y-96967677D01*
X30498296Y-96946813D01*
X30583235Y-96934213D01*
X30669000Y-96930000D01*
X32419000Y-96930000D01*
X32504765Y-96934213D01*
G37*
G04 #@! TD.AperFunction*
D11*
X161036000Y-111760000D03*
D10*
X161036000Y-109220000D03*
X155448000Y-109220000D03*
D11*
X155448000Y-111760000D03*
D10*
X147320000Y-51816000D03*
X147320000Y-49276000D03*
D11*
X147320000Y-46736000D03*
X101092000Y-54864000D03*
D10*
X101092000Y-52324000D03*
X98552000Y-52324000D03*
D11*
X98552000Y-54864000D03*
X103632000Y-54864000D03*
D10*
X103632000Y-52324000D03*
X94488000Y-43688000D03*
D11*
X94488000Y-41148000D03*
D28*
X95504000Y-98552000D03*
D29*
X95504000Y-96012000D03*
X95504000Y-93472000D03*
G04 #@! TA.AperFunction,ComponentPad*
D21*
G36*
X30530504Y-54981204D02*
G01*
X30554773Y-54984804D01*
X30578571Y-54990765D01*
X30601671Y-54999030D01*
X30623849Y-55009520D01*
X30644893Y-55022133D01*
X30664598Y-55036747D01*
X30682777Y-55053223D01*
X30699253Y-55071402D01*
X30713867Y-55091107D01*
X30726480Y-55112151D01*
X30736970Y-55134329D01*
X30745235Y-55157429D01*
X30751196Y-55181227D01*
X30754796Y-55205496D01*
X30756000Y-55230000D01*
X30756000Y-56530000D01*
X30754796Y-56554504D01*
X30751196Y-56578773D01*
X30745235Y-56602571D01*
X30736970Y-56625671D01*
X30726480Y-56647849D01*
X30713867Y-56668893D01*
X30699253Y-56688598D01*
X30682777Y-56706777D01*
X30664598Y-56723253D01*
X30644893Y-56737867D01*
X30623849Y-56750480D01*
X30601671Y-56760970D01*
X30578571Y-56769235D01*
X30554773Y-56775196D01*
X30530504Y-56778796D01*
X30506000Y-56780000D01*
X27406000Y-56780000D01*
X27381496Y-56778796D01*
X27357227Y-56775196D01*
X27333429Y-56769235D01*
X27310329Y-56760970D01*
X27288151Y-56750480D01*
X27267107Y-56737867D01*
X27247402Y-56723253D01*
X27229223Y-56706777D01*
X27212747Y-56688598D01*
X27198133Y-56668893D01*
X27185520Y-56647849D01*
X27175030Y-56625671D01*
X27166765Y-56602571D01*
X27160804Y-56578773D01*
X27157204Y-56554504D01*
X27156000Y-56530000D01*
X27156000Y-55230000D01*
X27157204Y-55205496D01*
X27160804Y-55181227D01*
X27166765Y-55157429D01*
X27175030Y-55134329D01*
X27185520Y-55112151D01*
X27198133Y-55091107D01*
X27212747Y-55071402D01*
X27229223Y-55053223D01*
X27247402Y-55036747D01*
X27267107Y-55022133D01*
X27288151Y-55009520D01*
X27310329Y-54999030D01*
X27333429Y-54990765D01*
X27357227Y-54984804D01*
X27381496Y-54981204D01*
X27406000Y-54980000D01*
X30506000Y-54980000D01*
X30530504Y-54981204D01*
G37*
G04 #@! TD.AperFunction*
D25*
X28956000Y-60960000D03*
D30*
X92964000Y-51388000D03*
X90464000Y-53888000D03*
X92964000Y-56388000D03*
D31*
X160528000Y-100584000D03*
X160528000Y-95504000D03*
X157988000Y-100584000D03*
X157988000Y-95504000D03*
X155448000Y-100584000D03*
X155448000Y-95504000D03*
X165100000Y-95504000D03*
X165100000Y-100584000D03*
X167640000Y-95504000D03*
X167640000Y-100584000D03*
X170180000Y-95504000D03*
X170180000Y-100584000D03*
X180340000Y-100584000D03*
X180340000Y-95504000D03*
X177800000Y-100584000D03*
X177800000Y-95504000D03*
X175260000Y-100584000D03*
X175260000Y-95504000D03*
D22*
X94488000Y-72644000D03*
D17*
X102108000Y-65024000D03*
X97028000Y-72644000D03*
X99568000Y-65024000D03*
X99568000Y-72644000D03*
X97028000Y-65024000D03*
X102108000Y-72644000D03*
X94488000Y-65024000D03*
D32*
X119634000Y-49276000D03*
X125984000Y-64516000D03*
X171196000Y-61468000D03*
X122428000Y-65024000D03*
X168656000Y-66040000D03*
X109982000Y-65532000D03*
X73406000Y-66548000D03*
X139192000Y-55118000D03*
X143764000Y-46990000D03*
X96012000Y-45212000D03*
X108204000Y-67056000D03*
X118364000Y-70612000D03*
X124460000Y-70612000D03*
X56896000Y-90424000D03*
X104902000Y-62230000D03*
X99822000Y-60452000D03*
X112776000Y-112014000D03*
X61722000Y-112776000D03*
X117856000Y-94742000D03*
X135382000Y-94742000D03*
X118364000Y-89408000D03*
X98552000Y-96012000D03*
X107188000Y-91948000D03*
X110236000Y-111760000D03*
X98552000Y-98552000D03*
X107188000Y-108204000D03*
X163576000Y-50800000D03*
X165608000Y-47244000D03*
X51308000Y-51054000D03*
X70104000Y-48260000D03*
X70104000Y-48260000D03*
X88138000Y-41148000D03*
X80010000Y-61468000D03*
X35560000Y-55880000D03*
X39624000Y-55880000D03*
X87884000Y-50800000D03*
X90932000Y-47752000D03*
X88392000Y-79502000D03*
X87122000Y-67564000D03*
D33*
X119634000Y-49276000D02*
X122428000Y-49276000D01*
X122428000Y-49276000D02*
X128270000Y-43434000D01*
X137922000Y-39624000D02*
X138938000Y-40640000D01*
X129286000Y-39624000D02*
X137922000Y-39624000D01*
X128270000Y-40640000D02*
X129286000Y-39624000D01*
X128270000Y-43434000D02*
X128270000Y-40640000D01*
X138938000Y-40640000D02*
X138938000Y-44196000D01*
X138938000Y-44196000D02*
X149098000Y-44196000D01*
X149098000Y-44196000D02*
X149098000Y-49276000D01*
X149098000Y-49276000D02*
X147320000Y-49276000D01*
X125984000Y-64516000D02*
X127000000Y-64516000D01*
X127000000Y-64516000D02*
X127508000Y-65024000D01*
X127508000Y-65024000D02*
X127508000Y-80264000D01*
X127508000Y-80264000D02*
X128524000Y-81280000D01*
X128524000Y-81280000D02*
X151935998Y-81280000D01*
X151935998Y-81280000D02*
X155956000Y-81280000D01*
X155956000Y-81280000D02*
X166116000Y-71120000D01*
X166116000Y-71120000D02*
X166116000Y-65532000D01*
X166116000Y-65532000D02*
X169672000Y-61976000D01*
X169672000Y-61976000D02*
X170688000Y-61976000D01*
X170688000Y-61976000D02*
X171196000Y-61468000D01*
X122428000Y-65024000D02*
X125984000Y-68580000D01*
X125984000Y-68580000D02*
X125984000Y-81788000D01*
X125984000Y-81788000D02*
X127508000Y-83312000D01*
X127508000Y-83312000D02*
X158496000Y-83312000D01*
X158496000Y-83312000D02*
X168148000Y-73660000D01*
X168148000Y-66548000D02*
X168148000Y-73660000D01*
X168656000Y-66040000D02*
X168148000Y-66548000D01*
X109582001Y-65931999D02*
X109582001Y-73043999D01*
X109982000Y-65532000D02*
X109582001Y-65931999D01*
X98860990Y-83765010D02*
X87829010Y-83765010D01*
X109582001Y-73043999D02*
X98860990Y-83765010D01*
X87829010Y-83765010D02*
X73406000Y-69342000D01*
X73406000Y-69342000D02*
X73406000Y-66548000D01*
X139192000Y-55118000D02*
X143764000Y-50546000D01*
X143764000Y-50546000D02*
X143764000Y-46990000D01*
X96012000Y-45212000D02*
X98044000Y-47244000D01*
X98044000Y-47244000D02*
X108204000Y-47244000D01*
X108204000Y-47244000D02*
X108204000Y-66548000D01*
X108204000Y-66548000D02*
X108204000Y-67056000D01*
X124460000Y-70612000D02*
X118364000Y-70612000D01*
X118364000Y-70612000D02*
X118364000Y-81788000D01*
X118364000Y-81788000D02*
X114300000Y-81788000D01*
X114300000Y-81788000D02*
X108712000Y-87376000D01*
X108712000Y-87376000D02*
X59944000Y-87376000D01*
X59944000Y-87376000D02*
X56896000Y-90424000D01*
X104902000Y-62230000D02*
X103124000Y-60452000D01*
X103124000Y-60452000D02*
X99822000Y-60452000D01*
X112776000Y-112014000D02*
X112014000Y-112776000D01*
X112014000Y-112776000D02*
X110998000Y-113792000D01*
X110998000Y-113792000D02*
X110744000Y-114046000D01*
X110744000Y-114046000D02*
X62992000Y-114046000D01*
X62992000Y-114046000D02*
X61722000Y-112776000D01*
X117856000Y-94742000D02*
X135382000Y-94742000D01*
X118364000Y-89408000D02*
X114808000Y-92964000D01*
X102108000Y-92964000D02*
X99060000Y-96012000D01*
X99060000Y-96012000D02*
X98552000Y-96012000D01*
X107188000Y-91948000D02*
X107188000Y-92964000D01*
X107188000Y-92964000D02*
X102108000Y-92964000D01*
X110236000Y-92964000D02*
X110236000Y-111760000D01*
X110236000Y-92964000D02*
X107188000Y-92964000D01*
X114808000Y-92964000D02*
X110236000Y-92964000D01*
X98552000Y-98552000D02*
X102108000Y-98552000D01*
X102108000Y-98552000D02*
X107188000Y-103632000D01*
X107188000Y-103632000D02*
X107188000Y-108204000D01*
X163576000Y-50800000D02*
X163576000Y-49276000D01*
X163576000Y-49276000D02*
X165608000Y-47244000D01*
X51308000Y-51054000D02*
X54102000Y-48260000D01*
X54102000Y-48260000D02*
X70104000Y-48260000D01*
X81788000Y-48260000D02*
X88138000Y-41910000D01*
X88138000Y-41910000D02*
X88138000Y-41148000D01*
X80010000Y-61214000D02*
X80010000Y-48260000D01*
X70104000Y-48260000D02*
X80010000Y-48260000D01*
X80010000Y-48260000D02*
X81788000Y-48260000D01*
X80010000Y-61214000D02*
X80010000Y-61468000D01*
X35560000Y-55880000D02*
X39624000Y-55880000D01*
X87884000Y-50800000D02*
X88283999Y-50400001D01*
X88283999Y-50400001D02*
X90932000Y-47752000D01*
X88392000Y-79502000D02*
X88392000Y-73914000D01*
X88392000Y-73914000D02*
X86106000Y-71628000D01*
X86106000Y-71628000D02*
X86106000Y-68580000D01*
X86106000Y-68580000D02*
X87122000Y-67564000D01*
M02*
