M48
; DRILL file {KiCad (5.1.5)-3} date 26.12.2020 22:04:42
; FORMAT={-:-/ absolute / inch / decimal}
; #@! TF.CreationDate,2020-12-26T22:04:42+01:00
; #@! TF.GenerationSoftware,Kicad,Pcbnew,(5.1.5)-3
; #@! TF.FileFunction,Plated,1,2,PTH
FMAT,2
INCH
T1C0.0157
T2C0.0315
T3C0.0354
T4C0.0394
T5C0.0472
T6C0.0551
%
G90
G05
T1
X1.4Y-2.2
X1.56Y-2.2
X2.02Y-2.01
X2.24Y-3.56
X2.43Y-4.44
X2.76Y-1.9
X2.76Y-1.9
X2.89Y-2.62
X3.15Y-2.42
X3.43Y-2.66
X3.46Y-2.0
X3.47Y-1.62
X3.48Y-3.13
X3.58Y-1.88
X3.78Y-1.78
X3.88Y-3.78
X3.88Y-3.88
X3.93Y-2.38
X4.13Y-2.45
X4.22Y-3.62
X4.22Y-4.26
X4.26Y-2.64
X4.33Y-2.58
X4.34Y-4.4
X4.44Y-4.41
X4.64Y-3.73
X4.66Y-2.78
X4.66Y-3.52
X4.71Y-1.94
X4.82Y-2.56
X4.9Y-2.78
X4.96Y-2.54
X5.33Y-3.73
X5.48Y-2.17
X5.66Y-1.85
X6.44Y-2.0
X6.52Y-1.86
X6.64Y-2.6
X6.74Y-2.42
T2
X4.14Y-1.62
X4.14Y-1.7184
X4.72Y-2.18
X4.72Y-2.58
X1.905Y-3.875
X1.905Y-4.075
X1.905Y-4.275
X1.925Y-3.225
X2.125Y-3.225
X2.25Y-4.325
X2.35Y-4.325
X2.425Y-3.225
X2.45Y-4.325
X2.55Y-4.325
X2.625Y-3.225
X2.65Y-4.325
X2.75Y-4.325
X2.85Y-4.325
X2.925Y-3.225
X2.95Y-4.325
X3.125Y-3.225
X3.54Y-2.6616
X3.54Y-2.76
X6.5Y-3.76
X6.5Y-3.96
X6.6Y-3.76
X6.6Y-3.96
X6.7Y-3.76
X6.7Y-3.96
X4.94Y-1.64
X4.94Y-2.04
X2.24Y-4.02
X2.64Y-4.02
X6.9Y-3.76
X6.9Y-3.96
X7.0Y-3.76
X7.0Y-3.96
X7.1Y-3.76
X7.1Y-3.96
X3.72Y-2.56
X3.72Y-2.86
X3.82Y-2.56
X3.82Y-2.86
X3.92Y-2.56
X3.92Y-2.86
X4.02Y-2.56
X4.02Y-2.86
X4.56Y-3.91
X4.56Y-4.01
X4.56Y-4.11
X4.56Y-4.21
X4.56Y-4.31
X4.56Y-4.41
X2.98Y-3.02
X3.38Y-3.02
X6.45Y-2.285
X6.55Y-2.285
X6.65Y-2.285
X6.75Y-2.285
X5.25Y-3.935
X5.35Y-3.935
X5.45Y-3.935
X5.55Y-3.935
X3.64Y-3.02
X4.04Y-3.02
X6.12Y-3.76
X6.12Y-3.96
X6.22Y-3.76
X6.22Y-3.96
X6.32Y-3.76
X6.32Y-3.96
X4.72Y-1.68
X4.72Y-2.08
X2.24Y-3.82
X2.64Y-3.82
X4.58Y-1.68
X4.58Y-1.78
X4.58Y-1.88
X4.58Y-1.98
X4.58Y-2.08
X4.58Y-2.18
X4.58Y-2.28
X4.58Y-2.38
X4.58Y-2.48
X4.58Y-2.58
X4.58Y-2.68
X4.58Y-2.78
X4.58Y-2.88
X4.58Y-2.98
X4.58Y-3.08
X5.18Y-1.68
X5.18Y-1.78
X5.18Y-1.88
X5.18Y-1.98
X5.18Y-2.08
X5.18Y-2.18
X5.18Y-2.28
X5.18Y-2.38
X5.18Y-2.48
X5.18Y-2.58
X5.18Y-2.68
X5.18Y-2.78
X5.18Y-2.88
X5.18Y-2.98
X5.18Y-3.08
T3
X3.5616Y-2.1216
X3.66Y-2.0231
X3.66Y-2.22
T4
X4.16Y-3.22
X4.16Y-3.32
X4.08Y-2.06
X4.08Y-2.16
X3.72Y-1.62
X3.72Y-1.72
X4.58Y-3.38
X4.68Y-3.38
X3.15Y-2.51
X3.25Y-2.51
X3.88Y-2.06
X3.88Y-2.16
X5.8Y-1.84
X5.8Y-1.94
X5.8Y-2.04
X5.56Y-1.63
X5.66Y-1.63
X5.76Y-1.63
X6.6Y-1.66
X6.6Y-1.76
X6.6Y-1.86
X6.6Y-1.96
X6.6Y-2.06
X6.56Y-4.3
X6.56Y-4.4
X6.34Y-4.3
X6.34Y-4.4
X3.96Y-1.62
X3.96Y-1.72
X3.56Y-1.62
X3.56Y-1.72
X3.76Y-3.68
X3.76Y-3.78
X3.76Y-3.88
X2.79Y-2.51
X2.89Y-2.51
X6.12Y-4.3
X6.12Y-4.4
X1.48Y-1.62
X1.58Y-1.62
X4.38Y-1.68
X4.38Y-1.78
X4.38Y-1.88
X4.38Y-1.98
X4.38Y-2.08
X4.38Y-2.18
X4.38Y-2.28
X4.38Y-2.38
X4.38Y-2.48
X4.38Y-2.58
X4.38Y-2.68
X4.38Y-2.78
X4.38Y-2.88
X4.38Y-2.98
X4.38Y-3.08
X3.98Y-2.06
X3.98Y-2.16
X5.1Y-3.38
X5.2Y-3.38
X5.38Y-1.68
X5.38Y-1.78
X5.38Y-1.88
X5.38Y-1.98
X5.38Y-2.08
X5.38Y-2.18
X5.38Y-2.28
X5.38Y-2.38
X5.38Y-2.48
X5.38Y-2.58
X5.38Y-2.68
X5.38Y-2.78
X5.38Y-2.88
X5.38Y-2.98
X5.38Y-3.08
T5
X4.22Y-3.54
X4.22Y-4.34
X1.14Y-2.2
X1.14Y-2.4
X1.14Y-3.14
X1.14Y-3.34
X1.14Y-2.66
X1.14Y-2.86
X5.99Y-1.84
X6.19Y-1.84
T6
X2.7647Y-2.0181
X2.8631Y-1.6244
X2.8631Y-2.1165
X3.06Y-2.0181
X3.2569Y-1.6244
X3.2569Y-2.1165
X3.3553Y-2.0181
X1.9147Y-2.0181
X2.0131Y-1.6244
X2.0131Y-2.1165
X2.21Y-2.0181
X2.4069Y-1.6244
X2.4069Y-2.1165
X2.5053Y-2.0181
T4
G00X1.1238Y-3.6606
M15
G01X1.1238Y-3.7394
M16
G05
G00X1.2025Y-3.885
M15
G01X1.2813Y-3.885
M16
G05
G00X1.36Y-3.6606
M15
G01X1.36Y-3.7394
M16
G05
T0
M30
